DiaRio de un TuQmano - polaR on CRAN
…
datos

El paquete no incluye datos, sino que funciona como motor de búsqueda y descarga desde un repositorio alternativo. La idea detrás de ello es que funcione de modo indpendiente, que ésta pudiera ser aumentada o modificada sin efectos directos sobre el paquete. En una próxima publicación intetnaré avanzar sobre la documentación de este repositorio y un proceo de chequeo de información.

La principal fuente de información es el siempre útil Atlas Electoral de Andy Tow. Sitio que, además de ser la fuente de tabulados electorales más completa que existe en Argentina, disponibiliza las bases con los datos desagregados publicados por los escrutinios provisorios desde el año 2003 en adelante.

El primer paso de lo acá compartido fue el procesamiento de esas bases de datos y el armado de un repositorio propio que me facilitara el trabajo de llamado de elecciones. En resumen: transformamos archivos .mdb (formato para tablas relacionles de Microsoft Acces) en sqlite para cada año electoral e hicimos consultas a esas basese de datos para obtener un archivo .csv para cada elección con una estrcutura así: distrito_categoria_turno_año.csv.

Solo para las elecciones del proceso electoral de 2019 trabajamos con datos compartidos por pmoracho en github. Algo más de detalle del estado actual de todo esto esta disponible en el repositorio PolAr_Data.

Al día de hoy el repositorio cuenta con 425 archvios de elecciones para las catgorías a Presidente, Diputades y Senadores Nacionales, para elecciones generales, primarias (P.A.S.O.) y balotaje presidencial.

Con show_available_elections() accedemos a un índice con la información disponible que podemos descargar:

# A tibble: 426 × 5
   district category round  year  NOMBRE   
   <chr>    <chr>    <chr>  <chr> <chr>    
 1 arg      presi    balota 2015  ARGENTINA
 2 arg      presi    gral   2003  ARGENTINA
 3 arg      presi    gral   2007  ARGENTINA
 4 arg      presi    gral   2011  ARGENTINA
 5 arg      presi    gral   2015  ARGENTINA
 6 arg      presi    gral   2019  ARGENTINA
 7 arg      presi    paso   2011  ARGENTINA
 8 arg      presi    paso   2015  ARGENTINA
 9 arg      presi    paso   2019  ARGENTINA
10 caba     dip      gral   2005  CABA     
# ℹ 416 more rows

Tomando los parámetros de la tabla anterior con el siguiente comando podemos completar los campos obligatorios para obtener los datos, en este caso de la elección general para presidente de 2019.

arg19 <- get_election_data(district = "arg",
                  category = "presi",
                  round = "gral", 
                  year = 2019)

arg19

# A tibble: 192 × 8
# Groups:   codprov [24]
   category round  year codprov name_prov    electores listas    votos
   <chr>    <chr> <dbl> <chr>   <chr>            <dbl> <chr>     <dbl>
 1 presi    gral   2019 01      CABA           2562670 00010     13662
 2 presi    gral   2019 01      CABA           2562670 00002     58652
 3 presi    gral   2019 01      CABA           2562670 00009   1051116
 4 presi    gral   2019 01      CABA           2562670 00005    714820
 5 presi    gral   2019 01      CABA           2562670 00001    129933
 6 presi    gral   2019 01      CABA           2562670 00004     37765
 7 presi    gral   2019 01      CABA           2562670 blancos   30994
 8 presi    gral   2019 01      CABA           2562670 nulos     14986
 9 presi    gral   2019 02      BUENOS AIRES  12504537 00010    149613
10 presi    gral   2019 02      BUENOS AIRES  12504537 00002    272846
# ℹ 182 more rows
…
Lo anterior es posible gracias a otro paquete, disponible para descarga desde un repositorio de github. geofaceteAr es una extensión local del paquete geofacet de Ryan Haffen. El empaquetado fue el resultado de ordenar la aplicación para Argentina de esta técnica de acomodar las grillas de ggplot2 como si fueran mapas, originalmente presentadas en LatinR 2018.

Éste carga el paquete geofacet y agrega funciones de utilidad para la geografía argentina. La priemra de ellas es show_arg_codes()que muestra un diccionario de grillas con el id correspondiente para descarga y equivalencias de los id correspodientes a los diferentes distritos.

# A tibble: 26 × 5
   id           codprov codprov_censo codprov_iso name_iso                      
   <chr>        <chr>   <chr>         <chr>       <chr>                         
 1 ARGENTINA    " "     " "           AR          Argentina                     
 2 CABA         "01"    "02"          AR-C        Ciudad Autónoma de Buenos Air…
 3 BUENOS AIRES "02"    "06"          AR-B        Buenos Aires                  
 4 CATAMARCA    "03"    "10"          AR-K        Catamarca                     
 5 CORDOBA      "04"    "14"          AR-X        Córdoba                       
 6 CORRIENTES   "05"    "18"          AR-W        Corrientes                    
 7 CHACO        "06"    "22"          AR-H        Chaco                         
 8 CHUBUT       "07"    "26"          AR-U        Chubut                        
 9 ENTRE RIOS   "08"    "30"          AR-E        Entre Ríos                    
10 FORMOSA      "09"    "34"          AR-P        Formosa                       
# ℹ 16 more rows
…
