DiaRio de un TuQmano - dibujaR legislatuRas
…
El segundo paso consiste en transformar esa base de datos en otra que tenga un formato adecuado para luego poder realizar la visualización con un agregado de ggplot2. La función parliament_data de ggparliament es la que se encarga de la magia. Abajo un detalle de los parámetros que podemos utilizar.

# VOY A CREAR EL OBJETO DE ggparliament con la data ordenada para el plot

data_diputados_tucuman<- ggparliament::parliament_data(diputados_tucuman, #datos originales
                                                       type = "semicircle", # forma del hemiciclo
                                                       parl_rows =3, # cantidad de filas
                                                       party_seats = diputados_tucuman$seats, # número de bancas 
                                                       plot_order = diputados_tucuman$orden) %>% #orden de partidos en hemiciclo
  mutate(colour = as.character(colour)) %>% # vector de texto para codigo HEX de colores asignados previamente
  as_tibble() %>%  
  print()

# A tibble: 49 × 13
    year country house     party_long  party_short seats government colour orden
   <dbl> <chr>   <chr>     <chr>       <chr>       <dbl>      <dbl> <chr>  <dbl>
 1  2020 TUCUMAN DIPUTADOS Frente Jus… PJ             33          1 #2b8c…     3
 2  2020 TUCUMAN DIPUTADOS Frente Jus… PJ             33          1 #2b8c…     3
 3  2020 TUCUMAN DIPUTADOS Frente Jus… PJ             33          1 #2b8c…     3
 4  2020 TUCUMAN DIPUTADOS Frente Jus… PJ             33          1 #2b8c…     3
 5  2020 TUCUMAN DIPUTADOS Frente Jus… PJ             33          1 #2b8c…     3
 6  2020 TUCUMAN DIPUTADOS Frente Jus… PJ             33          1 #2b8c…     3
 7  2020 TUCUMAN DIPUTADOS Frente Jus… PJ             33          1 #2b8c…     3
 8  2020 TUCUMAN DIPUTADOS Frente Jus… PJ             33          1 #2b8c…     3
 9  2020 TUCUMAN DIPUTADOS Frente Jus… PJ             33          1 #2b8c…     3
10  2020 TUCUMAN DIPUTADOS Frente Jus… PJ             33          1 #2b8c…     3
# ℹ 39 more rows
# ℹ 4 more variables: x <dbl>, y <dbl>, row <int>, theta <dbl>
…
